...................
----------------------------------------------------------------------
Ran 19 tests in 0.562s

OK
Name             Stmts   Miss Branch BrPart  Cover   Missing
------------------------------------------------------------
Collatz.py          39      1     14      1    96%   97, 96->97
TestCollatz.py      83      0      0      0   100%
------------------------------------------------------------
TOTAL              122      1     14      1    99%
